\relax 
\catcode`"\active
\select@language{russian}
\@writefile{toc}{\select@language{russian}}
\@writefile{lof}{\select@language{russian}}
\@writefile{lot}{\select@language{russian}}
\@writefile{toc}{\contentsline {subsection}{\numberline {0.1.\hskip 1em}\IeC {\CYRP }\IeC {\cyro }\IeC {\cyrl }\IeC {\cyru }\IeC {\cyrch }\IeC {\cyre }\IeC {\cyrn }\IeC {\cyri }\IeC {\cyre } \IeC {\cyra }\IeC {\cyrg }\IeC {\cyrr }\IeC {\cyre }\IeC {\cyrg }\IeC {\cyri }\IeC {\cyrr }\IeC {\cyro }\IeC {\cyrv }\IeC {\cyra }\IeC {\cyrn }\IeC {\cyrn }\IeC {\cyro }\IeC {\cyrg }\IeC {\cyro } \IeC {\cyrz }\IeC {\cyrn }\IeC {\cyra }\IeC {\cyrch }\IeC {\cyre }\IeC {\cyrn }\IeC {\cyri }\IeC {\cyrya } \IeC {\cyrr }\IeC {\cyri }\IeC {\cyrs }\IeC {\cyrk }\IeC {\cyra }}{1}}
\@writefile{toc}{\contentsline {subsubsection}{\numberline {0.1.1.\hskip 1em}\IeC {\CYRA }\IeC {\cyrn }\IeC {\cyra }\IeC {\cyrl }\IeC {\cyri }\IeC {\cyrt }\IeC {\cyri }\IeC {\cyrch }\IeC {\cyre }\IeC {\cyrs }\IeC {\cyrk }\IeC {\cyri }\IeC {\cyrishrt } \IeC {\cyrm }\IeC {\cyre }\IeC {\cyrt }\IeC {\cyro }\IeC {\cyrd }}{1}}
\newlabel{productFormula}{{0.1.1}{1}}
\newlabel{function}{{0.1.2}{2}}
\newlabel{Gamma}{{0.1.5}{2}}
\@writefile{toc}{\contentsline {subsubsection}{\numberline {0.1.2.\hskip 1em}\IeC {\CYRM }\IeC {\cyre }\IeC {\cyrt }\IeC {\cyro }\IeC {\cyrd } \IeC {\CYRM }\IeC {\cyro }\IeC {\cyrn }\IeC {\cyrt }\IeC {\cyre }-\IeC {\CYRK }\IeC {\cyra }\IeC {\cyrr }\IeC {\cyrl }\IeC {\cyro }}{2}}
