\relax 
\catcode`"\active
\select@language{english}
\@writefile{toc}{\select@language{english}}
\@writefile{lof}{\select@language{english}}
\@writefile{lot}{\select@language{english}}
\@writefile{toc}{\contentsline {section}{\numberline {1.\hskip 1em}\IeC {\CYRP }\IeC {\cyro }\IeC {\cyrs }\IeC {\cyrt }\IeC {\cyra }\IeC {\cyrn }\IeC {\cyro }\IeC {\cyrv }\IeC {\cyrk }\IeC {\cyra } \IeC {\cyrz }\IeC {\cyra }\IeC {\cyrd }\IeC {\cyra }\IeC {\cyrch }\IeC {\cyri }}{2}}
\citation{BelovManagement}
\citation{PMBok}
\@writefile{toc}{\contentsline {section}{\numberline {2.\hskip 1em}\IeC {\CYRO }\IeC {\cyrs }\IeC {\cyrn }\IeC {\cyro }\IeC {\cyrv }\IeC {\cyrn }\IeC {\cyrery }\IeC {\cyre } \IeC {\cyrp }\IeC {\cyro }\IeC {\cyrn }\IeC {\cyrya }\IeC {\cyrt }\IeC {\cyri }\IeC {\cyrya }}{4}}
\@writefile{toc}{\contentsline {subsection}{\numberline {2.1.\hskip 1em}\IeC {\CYRP }\IeC {\cyro }\IeC {\cyrn }\IeC {\cyrya }\IeC {\cyrt }\IeC {\cyri }\IeC {\cyre } \IeC {\cyrr }\IeC {\cyri }\IeC {\cyrs }\IeC {\cyrk }\IeC {\cyra }}{4}}
\@writefile{toc}{\contentsline {subsection}{\numberline {2.2.\hskip 1em}\IeC {\CYRP }\IeC {\cyrr }\IeC {\cyro }\IeC {\cyrc }\IeC {\cyre }\IeC {\cyrs }\IeC {\cyrs } \IeC {\cyru }\IeC {\cyrp }\IeC {\cyrr }\IeC {\cyra }\IeC {\cyrv }\IeC {\cyrl }\IeC {\cyre }\IeC {\cyrn }\IeC {\cyri }\IeC {\cyrya } \IeC {\cyrr }\IeC {\cyri }\IeC {\cyrs }\IeC {\cyrk }\IeC {\cyro }\IeC {\cyrm }}{4}}
\citation{Guz}
\citation{Small}
\@writefile{toc}{\contentsline {section}{\numberline {3.\hskip 1em}\IeC {\CYRM }\IeC {\cyre }\IeC {\cyrt }\IeC {\cyro }\IeC {\cyrd }\IeC {\cyrery } \IeC {\cyro }\IeC {\cyrc }\IeC {\cyre }\IeC {\cyrn }\IeC {\cyrk }\IeC {\cyri } \IeC {\cyrr }\IeC {\cyri }\IeC {\cyrs }\IeC {\cyrk }\IeC {\cyra }}{7}}
\@writefile{toc}{\contentsline {subsection}{\numberline {3.1.\hskip 1em}\IeC {\CYRS }\IeC {\cyrt }\IeC {\cyra }\IeC {\cyrt }\IeC {\cyri }\IeC {\cyrs }\IeC {\cyrt }\IeC {\cyri }\IeC {\cyrch }\IeC {\cyre }\IeC {\cyrs }\IeC {\cyrk }\IeC {\cyri }\IeC {\cyre } \IeC {\cyrm }\IeC {\cyre }\IeC {\cyrt }\IeC {\cyro }\IeC {\cyrd }\IeC {\cyrery } \IeC {\cyro }\IeC {\cyrc }\IeC {\cyre }\IeC {\cyrn }\IeC {\cyrk }\IeC {\cyri } \IeC {\cyrr }\IeC {\cyri }\IeC {\cyrs }\IeC {\cyrk }\IeC {\cyra }}{7}}
\citation{VaR}
\citation{RiskMetrics}
\@writefile{toc}{\contentsline {subsubsection}{\numberline {3.1.1.\hskip 1em}\IeC {\CYRM }\IeC {\cyre }\IeC {\cyrr }\IeC {\cyra } \IeC {\cyrr }\IeC {\cyri }\IeC {\cyrs }\IeC {\cyrk }\IeC {\cyra } (Value-at-risk)}{8}}
\citation{NonParamVar}
\citation{BlackSwan}
\citation{VaR}
\@writefile{toc}{\contentsline {subsubsection}{\numberline {3.1.2.\hskip 1em}\IeC {\CYRM }\IeC {\cyre }\IeC {\cyrt }\IeC {\cyro }\IeC {\cyrd } \IeC {\cyro }\IeC {\cyrzh }\IeC {\cyri }\IeC {\cyrd }\IeC {\cyra }\IeC {\cyre }\IeC {\cyrm }\IeC {\cyrery }\IeC {\cyrh } \IeC {\cyrp }\IeC {\cyro }\IeC {\cyrt }\IeC {\cyre }\IeC {\cyrr }\IeC {\cyrsftsn }(Expected Shorfall)}{11}}
\@writefile{toc}{\contentsline {subsection}{\numberline {3.2.\hskip 1em}\IeC {\CYRM }\IeC {\cyre }\IeC {\cyrt }\IeC {\cyro }\IeC {\cyrd }\IeC {\cyrery } \IeC {\cyrerev }\IeC {\cyrk }\IeC {\cyrs }\IeC {\cyrp }\IeC {\cyre }\IeC {\cyrr }\IeC {\cyrt }\IeC {\cyrn }\IeC {\cyrery }\IeC {\cyrh } \IeC {\cyro }\IeC {\cyrc }\IeC {\cyre }\IeC {\cyrn }\IeC {\cyro }\IeC {\cyrk }}{13}}
\@writefile{toc}{\contentsline {subsubsection}{\numberline {3.2.1.\hskip 1em}\IeC {\CYRM }\IeC {\cyre }\IeC {\cyrt }\IeC {\cyro }\IeC {\cyrd } \IeC {\CYRD }\IeC {\cyre }\IeC {\cyrl }\IeC {\cyrsftsn }\IeC {\cyrf }\IeC {\cyri }}{14}}
\citation{Kado}
\@writefile{toc}{\contentsline {subsubsection}{\numberline {3.2.2.\hskip 1em}\IeC {\CYRM }\IeC {\cyre }\IeC {\cyrt }\IeC {\cyro }\IeC {\cyrd } \IeC {\cyra }\IeC {\cyrg }\IeC {\cyrr }\IeC {\cyre }\IeC {\cyrg }\IeC {\cyra }\IeC {\cyrc }\IeC {\cyri }\IeC {\cyri } \IeC {\cyrn }\IeC {\cyre }\IeC {\cyrv }\IeC {\cyre }\IeC {\cyrr }\IeC {\cyro }\IeC {\cyrya }\IeC {\cyrt }\IeC {\cyrn }\IeC {\cyro }\IeC {\cyrs }\IeC {\cyrn }\IeC {\cyrery }\IeC {\cyrh } \IeC {\cyro }\IeC {\cyrc }\IeC {\cyre }\IeC {\cyrn }\IeC {\cyro }\IeC {\cyrk } \IeC {\cyrch }\IeC {\cyre }\IeC {\cyrr }\IeC {\cyre }\IeC {\cyrz } \IeC {\cyrp }\IeC {\cyra }\IeC {\cyrr }\IeC {\cyra }\IeC {\cyrm }\IeC {\cyre }\IeC {\cyrt }\IeC {\cyrr }\IeC {\cyrery } \IeC {\cyrr }\IeC {\cyra }\IeC {\cyrs }\IeC {\cyrp }\IeC {\cyrr }\IeC {\cyre }\IeC {\cyrd }\IeC {\cyre }\IeC {\cyrl }\IeC {\cyre }\IeC {\cyrn }\IeC {\cyri }\IeC {\cyrya }}{17}}
\newlabel{Kado}{{3.2.2}{17}}
\citation{Kado}
\citation{BakerCombining}
\@writefile{toc}{\contentsline {subsubsection}{\numberline {3.2.3.\hskip 1em}\IeC {\CYRM }\IeC {\cyre }\IeC {\cyrt }\IeC {\cyro }\IeC {\cyrd } \IeC {\cyra }\IeC {\cyrg }\IeC {\cyrr }\IeC {\cyre }\IeC {\cyrg }\IeC {\cyra }\IeC {\cyrc }\IeC {\cyri }\IeC {\cyri } \IeC {\cyro }\IeC {\cyrc }\IeC {\cyre }\IeC {\cyrn }\IeC {\cyro }\IeC {\cyrk } \IeC {\cyrd }\IeC {\cyrl }\IeC {\cyrya } \IeC {\cyrv }\IeC {\cyre }\IeC {\cyrr }\IeC {\cyro }\IeC {\cyrya }\IeC {\cyrt }\IeC {\cyrn }\IeC {\cyro }\IeC {\cyrs }\IeC {\cyrt }\IeC {\cyri }}{19}}
\citation{BakerCombining}
\citation{BakerCombining}
\citation{MomentsProblem}
\@writefile{toc}{\contentsline {subsection}{\numberline {3.3.\hskip 1em}\IeC {\CYRR }\IeC {\cyre }\IeC {\cyrz }\IeC {\cyryu }\IeC {\cyrm }\IeC {\cyre }}{22}}
\@writefile{toc}{\contentsline {section}{\numberline {4.\hskip 1em}\IeC {\CYRO }\IeC {\cyrp }\IeC {\cyri }\IeC {\cyrs }\IeC {\cyra }\IeC {\cyrn }\IeC {\cyri }\IeC {\cyre } \IeC {\cyrm }\IeC {\cyre }\IeC {\cyrt }\IeC {\cyro }\IeC {\cyrd }\IeC {\cyra }}{24}}
\@writefile{toc}{\contentsline {subsection}{\numberline {4.1.\hskip 1em}\IeC {\CYRP }\IeC {\cyro }\IeC {\cyrs }\IeC {\cyrt }\IeC {\cyra }\IeC {\cyrn }\IeC {\cyro }\IeC {\cyrv }\IeC {\cyrk }\IeC {\cyra } \IeC {\cyrz }\IeC {\cyra }\IeC {\cyrd }\IeC {\cyra }\IeC {\cyrch }\IeC {\cyri }}{24}}
\newlabel{MethodOverview}{{4.1}{24}}
\@writefile{toc}{\contentsline {subsection}{\numberline {4.2.\hskip 1em}\IeC {\CYRP }\IeC {\cyro }\IeC {\cyrl }\IeC {\cyru }\IeC {\cyrch }\IeC {\cyre }\IeC {\cyrn }\IeC {\cyri }\IeC {\cyre } \IeC {\cyra }\IeC {\cyrg }\IeC {\cyrr }\IeC {\cyre }\IeC {\cyrg }\IeC {\cyri }\IeC {\cyrr }\IeC {\cyro }\IeC {\cyrv }\IeC {\cyra }\IeC {\cyrn }\IeC {\cyrn }\IeC {\cyro }\IeC {\cyrishrt } \IeC {\cyro }\IeC {\cyrc }\IeC {\cyre }\IeC {\cyrn }\IeC {\cyrk }\IeC {\cyri } \IeC {\cyrv }\IeC {\cyre }\IeC {\cyrl }\IeC {\cyri }\IeC {\cyrch }\IeC {\cyri }\IeC {\cyrn }\IeC {\cyrery } \IeC {\cyru }\IeC {\cyrshch }\IeC {\cyre }\IeC {\cyrr }\IeC {\cyrb }\IeC {\cyra }}{24}}
\@writefile{toc}{\contentsline {subsubsection}{\numberline {4.2.1.\hskip 1em}\IeC {\CYREREV }\IeC {\cyrm }\IeC {\cyrp }\IeC {\cyri }\IeC {\cyrr }\IeC {\cyri }\IeC {\cyrch }\IeC {\cyre }\IeC {\cyrs }\IeC {\cyrk }\IeC {\cyra }\IeC {\cyrya } \IeC {\cyrp }\IeC {\cyrl }\IeC {\cyro }\IeC {\cyrt }\IeC {\cyrn }\IeC {\cyro }\IeC {\cyrs }\IeC {\cyrt }\IeC {\cyrsftsn } \IeC {\cyrr }\IeC {\cyra }\IeC {\cyrs }\IeC {\cyrp }\IeC {\cyrr }\IeC {\cyre }\IeC {\cyrd }\IeC {\cyre }\IeC {\cyrl }\IeC {\cyre }\IeC {\cyrn }\IeC {\cyri }\IeC {\cyrya }}{26}}
\newlabel{FunctionByDelta}{{4.2.5}{27}}
\newlabel{resultFunction}{{4.2.11}{27}}
\citation{Small}
\newlabel{Normirovka}{{4.2.13}{28}}
\@writefile{toc}{\contentsline {subsubsection}{\numberline {4.2.2.\hskip 1em}\IeC {\CYRP }\IeC {\cyro }\IeC {\cyrl }\IeC {\cyrn }\IeC {\cyra }\IeC {\cyrya } \IeC {\cyro }\IeC {\cyrc }\IeC {\cyre }\IeC {\cyrn }\IeC {\cyrk }\IeC {\cyra }}{30}}
\newlabel{FullFormula}{{4.2.17}{30}}
\newlabel{AprioriFormula}{{4.2.18}{31}}
\citation{Sigmas}
\citation{Small}
\@writefile{toc}{\contentsline {subsection}{\numberline {4.3.\hskip 1em}\IeC {\CYRP }\IeC {\cyro }\IeC {\cyrl }\IeC {\cyru }\IeC {\cyrch }\IeC {\cyre }\IeC {\cyrn }\IeC {\cyri }\IeC {\cyre } \IeC {\cyra }\IeC {\cyrg }\IeC {\cyrr }\IeC {\cyre }\IeC {\cyrg }\IeC {\cyri }\IeC {\cyrr }\IeC {\cyro }\IeC {\cyrv }\IeC {\cyra }\IeC {\cyrn }\IeC {\cyrn }\IeC {\cyro }\IeC {\cyrg }\IeC {\cyro } \IeC {\cyrz }\IeC {\cyrn }\IeC {\cyra }\IeC {\cyrch }\IeC {\cyre }\IeC {\cyrn }\IeC {\cyri }\IeC {\cyrya } \IeC {\cyrr }\IeC {\cyri }\IeC {\cyrs }\IeC {\cyrk }\IeC {\cyra }}{35}}
\@writefile{toc}{\contentsline {subsubsection}{\numberline {4.3.1.\hskip 1em}\IeC {\CYRA }\IeC {\cyrn }\IeC {\cyra }\IeC {\cyrl }\IeC {\cyri }\IeC {\cyrt }\IeC {\cyri }\IeC {\cyrch }\IeC {\cyre }\IeC {\cyrs }\IeC {\cyrk }\IeC {\cyri }\IeC {\cyrishrt } \IeC {\cyrm }\IeC {\cyre }\IeC {\cyrt }\IeC {\cyro }\IeC {\cyrd }}{35}}
\newlabel{productFormula}{{4.3.24}{35}}
\newlabel{function}{{4.3.25}{36}}
\newlabel{Gamma}{{4.3.28}{36}}
\@writefile{toc}{\contentsline {subsubsection}{\numberline {4.3.2.\hskip 1em}\IeC {\CYRM }\IeC {\cyre }\IeC {\cyrt }\IeC {\cyro }\IeC {\cyrd } \IeC {\CYRM }\IeC {\cyro }\IeC {\cyrn }\IeC {\cyrt }\IeC {\cyre }-\IeC {\CYRK }\IeC {\cyra }\IeC {\cyrr }\IeC {\cyrl }\IeC {\cyro }}{36}}
\@writefile{toc}{\contentsline {subsection}{\numberline {4.4.\hskip 1em}\IeC {\CYRP }\IeC {\cyrr }\IeC {\cyro }\IeC {\cyrg }\IeC {\cyrr }\IeC {\cyra }\IeC {\cyrm }\IeC {\cyrm }\IeC {\cyrn }\IeC {\cyra }\IeC {\cyrya } \IeC {\cyrr }\IeC {\cyre }\IeC {\cyra }\IeC {\cyrl }\IeC {\cyri }\IeC {\cyrz }\IeC {\cyra }\IeC {\cyrc }\IeC {\cyri }\IeC {\cyrya }}{38}}
\newlabel{sampleMean}{{4.4.30}{40}}
\newlabel{sampleSd}{{4.4.31}{40}}
\newlabel{mean}{{4.4.32}{40}}
\newlabel{sd}{{4.4.33}{40}}
\@writefile{lot}{\contentsline {table}{\numberline {1}{\ignorespaces \IeC {\CYRS }\IeC {\cyrr }\IeC {\cyra }\IeC {\cyrv }\IeC {\cyrn }\IeC {\cyre }\IeC {\cyrn }\IeC {\cyri }\IeC {\cyre } \IeC {\cyro }\IeC {\cyrc }\IeC {\cyre }\IeC {\cyrn }\IeC {\cyro }\IeC {\cyrk } \IeC {\cyrd }\IeC {\cyrl }\IeC {\cyrya } \IeC {\cyrm }\IeC {\cyra }\IeC {\cyrt }\IeC {\cyre }\IeC {\cyrm }\IeC {\cyra }\IeC {\cyrt }\IeC {\cyri }\IeC {\cyrch }\IeC {\cyre }\IeC {\cyrs }\IeC {\cyrk }\IeC {\cyro }\IeC {\cyrg }\IeC {\cyro } \IeC {\cyro }\IeC {\cyrzh }\IeC {\cyri }\IeC {\cyrd }\IeC {\cyra }\IeC {\cyrn }\IeC {\cyri }\IeC {\cyrya }}}{41}}
\@writefile{toc}{\contentsline {section}{\numberline {5.\hskip 1em}\IeC {\CYRZ }\IeC {\cyra }\IeC {\cyrk }\IeC {\cyrl }\IeC {\cyryu }\IeC {\cyrch }\IeC {\cyre }\IeC {\cyrn }\IeC {\cyri }\IeC {\cyre }}{43}}
\bibcite{PMBok}{{1}{}{{}}{{}}}
\bibcite{BelovManagement}{{2}{}{{}}{{}}}
\bibcite{Guz}{{3}{}{{}}{{}}}
\bibcite{VaR}{{4}{}{{}}{{}}}
\bibcite{Small}{{5}{}{{}}{{}}}
\bibcite{RiskMetrics}{{6}{}{{}}{{}}}
\bibcite{NonParamVar}{{7}{}{{}}{{}}}
\bibcite{BlackSwan}{{8}{}{{}}{{}}}
\bibcite{Kado}{{9}{}{{}}{{}}}
\bibcite{BakerCombining}{{10}{}{{}}{{}}}
\bibcite{MomentsProblem}{{11}{}{{}}{{}}}
\bibcite{Sigmas}{{12}{}{{}}{{}}}
\@writefile{toc}{\contentsline {chapter}{\IeC {\CYRS }\IeC {\cyrp }\IeC {\cyri }\IeC {\cyrs }\IeC {\cyro }\IeC {\cyrk } \IeC {\cyrl }\IeC {\cyri }\IeC {\cyrt }\IeC {\cyre }\IeC {\cyrr }\IeC {\cyra }\IeC {\cyrt }\IeC {\cyru }\IeC {\cyrr }\IeC {\cyrery }}{44}}
\bibcite{Product}{{13}{}{{}}{{}}}
\bibcite{Sigmas}{{14}{}{{}}{{}}}
\providecommand\NAT@force@numbers{}\NAT@force@numbers
