\relax 
\catcode`"\active
\citation{Guz}
\citation{Small}
\select@language{russian}
\@writefile{toc}{\select@language{russian}}
\@writefile{lof}{\select@language{russian}}
\@writefile{lot}{\select@language{russian}}
\@writefile{toc}{\contentsline {section}{\numberline {1.\hskip 1em}\IeC {\CYRM }\IeC {\cyre }\IeC {\cyrt }\IeC {\cyro }\IeC {\cyrd }\IeC {\cyrery } \IeC {\cyro }\IeC {\cyrc }\IeC {\cyre }\IeC {\cyrn }\IeC {\cyrk }\IeC {\cyri } \IeC {\cyrr }\IeC {\cyri }\IeC {\cyrs }\IeC {\cyrk }\IeC {\cyra }}{1}}
\@writefile{toc}{\contentsline {subsection}{\numberline {1.1.\hskip 1em}\IeC {\CYRS }\IeC {\cyrt }\IeC {\cyra }\IeC {\cyrt }\IeC {\cyri }\IeC {\cyrs }\IeC {\cyrt }\IeC {\cyri }\IeC {\cyrch }\IeC {\cyre }\IeC {\cyrs }\IeC {\cyrk }\IeC {\cyri }\IeC {\cyre } \IeC {\cyrm }\IeC {\cyre }\IeC {\cyrt }\IeC {\cyro }\IeC {\cyrd }\IeC {\cyrery } \IeC {\cyro }\IeC {\cyrc }\IeC {\cyre }\IeC {\cyrn }\IeC {\cyrk }\IeC {\cyri } \IeC {\cyrr }\IeC {\cyri }\IeC {\cyrs }\IeC {\cyrk }\IeC {\cyra }}{1}}
\citation{VaR}
\citation{RiskMetrics}
\@writefile{toc}{\contentsline {subsubsection}{\numberline {1.1.1.\hskip 1em}\IeC {\CYRM }\IeC {\cyre }\IeC {\cyrr }\IeC {\cyra } \IeC {\cyrr }\IeC {\cyri }\IeC {\cyrs }\IeC {\cyrk }\IeC {\cyra } (Value-at-risk)}{2}}
\citation{NonParamVar}
\citation{BlackSwan}
\citation{VaR}
\@writefile{toc}{\contentsline {subsubsection}{\numberline {1.1.2.\hskip 1em}\IeC {\CYRM }\IeC {\cyre }\IeC {\cyrt }\IeC {\cyro }\IeC {\cyrd } \IeC {\cyro }\IeC {\cyrzh }\IeC {\cyri }\IeC {\cyrd }\IeC {\cyra }\IeC {\cyre }\IeC {\cyrm }\IeC {\cyrery }\IeC {\cyrh } \IeC {\cyrp }\IeC {\cyro }\IeC {\cyrt }\IeC {\cyre }\IeC {\cyrr }\IeC {\cyrsftsn }(Expected Shorfall)}{5}}
