This is BibTeX, Version 0.99dThe top-level auxiliary file: methodsIntro.aux
I found no \bibdata command---while reading file methodsIntro.aux
I found no \bibstyle command---while reading file methodsIntro.aux
(There were 2 error messages)
