\beamer@endinputifotherversion {3.36pt}
\select@language {russian}
\beamer@sectionintoc {1}{\IeC {\CYRV }\IeC {\cyrv }\IeC {\cyre }\IeC {\cyrd }\IeC {\cyre }\IeC {\cyrn }\IeC {\cyri }\IeC {\cyre }}{2}{0}{1}
