\relax 
\catcode`"\active
\select@language{russian}
\@writefile{toc}{\select@language{russian}}
\@writefile{lof}{\select@language{russian}}
\@writefile{lot}{\select@language{russian}}
\@writefile{toc}{\contentsline {subsection}{\numberline {0.1.\hskip 1em}\IeC {\CYRR }\IeC {\cyre }\IeC {\cyrz }\IeC {\cyryu }\IeC {\cyrm }\IeC {\cyre }}{1}}
