\relax 
\catcode`"\active
\citation{BelovManagement}
\citation{PMBok}
\select@language{russian}
\@writefile{toc}{\select@language{russian}}
\@writefile{lof}{\select@language{russian}}
\@writefile{lot}{\select@language{russian}}
\@writefile{toc}{\contentsline {section}{\numberline {1.\hskip 1em}\IeC {\CYRO }\IeC {\cyrs }\IeC {\cyrn }\IeC {\cyro }\IeC {\cyrv }\IeC {\cyrn }\IeC {\cyrery }\IeC {\cyre } \IeC {\cyrp }\IeC {\cyro }\IeC {\cyrn }\IeC {\cyrya }\IeC {\cyrt }\IeC {\cyri }\IeC {\cyrya }}{1}}
\@writefile{toc}{\contentsline {subsection}{\numberline {1.1.\hskip 1em}\IeC {\CYRP }\IeC {\cyro }\IeC {\cyrn }\IeC {\cyrya }\IeC {\cyrt }\IeC {\cyri }\IeC {\cyre } \IeC {\cyrr }\IeC {\cyri }\IeC {\cyrs }\IeC {\cyrk }\IeC {\cyra }}{1}}
\@writefile{toc}{\contentsline {subsection}{\numberline {1.2.\hskip 1em}\IeC {\CYRP }\IeC {\cyrr }\IeC {\cyro }\IeC {\cyrc }\IeC {\cyre }\IeC {\cyrs }\IeC {\cyrs } \IeC {\cyru }\IeC {\cyrp }\IeC {\cyrr }\IeC {\cyra }\IeC {\cyrv }\IeC {\cyrl }\IeC {\cyre }\IeC {\cyrn }\IeC {\cyri }\IeC {\cyrya } \IeC {\cyrr }\IeC {\cyri }\IeC {\cyrs }\IeC {\cyrk }\IeC {\cyro }\IeC {\cyrm }}{1}}
